com/test/employee/ws/api/vo/APIResponse.class
com/test/employee/EmployeeServiceApplication.class
com/test/employee/service/impl/EmployeeServiceImpl.class
com/test/employee/controller/EmployeeController.class
com/test/employee/ws/api/vo/EmployeesResponse.class
com/test/employee/model/Employee.class
com/test/employee/service/EmployeeService.class
